module avatar

go 1.16

require (
	github.com/gernest/front v0.0.0-20210301115436-8a0b0a782d0a
	github.com/microcosm-cc/bluemonday v1.0.9 // indirect
	github.com/olebedev/config v0.0.0-20190528211619-364964f3a8e4
	github.com/sergi/go-diff v1.2.0 // indirect
	github.com/shurcooL/github_flavored_markdown v0.0.0-20210228213109-c3a9aa474629
	github.com/shurcooL/go v0.0.0-20200502201357-93f07166e636 // indirect
	github.com/shurcooL/go-goon v0.0.0-20210110234559-7585751d9a17 // indirect
	github.com/shurcooL/highlight_diff v0.0.0-20181222201841-111da2e7d480 // indirect
	github.com/shurcooL/highlight_go v0.0.0-20191220051317-782971ddf21b // indirect
	github.com/shurcooL/octicon v0.0.0-20191102190552-cbb32d6a785c // indirect
	github.com/shurcooL/sanitized_anchor_name v1.0.0 // indirect
	github.com/sourcegraph/annotate v0.0.0-20160123013949-f4cad6c6324d // indirect
	github.com/sourcegraph/syntaxhighlight v0.0.0-20170531221838-bd320f5d308e // indirect
	golang.org/x/net v0.0.0-20210508051633-16afe75a6701 // indirect
	gopkg.in/yaml.v2 v2.3.0 // indirect
)
